The many faces of theory in DH
…
## # A tibble: 4 x 2
##   sex_gender           n
##   <chr>            <int>
## 1 female             341
## 2 male              1870
## 3 non-binary           5
## 4 transgender male     3

data %>% 
  distinct(q_id, .keep_all = TRUE) %>%
  count(country_citizenship, sort = T)

## # A tibble: 277 x 2
##    country_citizenship          n
##    <chr>                    <int>
##  1 United States of America   652
##  2 <NA>                       312
##  3 Germany                    170
##  4 France                     165
##  5 United Kingdom             109
##  6 Canada                      40
##  7 Australia                   30
##  8 Italy                       28
##  9 Japan                       28
## 10 India                       19
## # ... with 267 more rows
…
